Layton R blog - Revisiting basic data transforms
…
Aggregating transforms

Counting frequency of observations

Summarizing (many rows into summary rows)

Getting started

I first load the penguins data set from the palmerpenguins package.

data(penguins)
penguins

#> # A tibble: 344 × 8
#>    species island    bill_length_mm bill_depth_mm flipper_length_mm body_mass_g
#>    <fct>   <fct>              <dbl>         <dbl>             <int>       <int>
#>  1 Adelie  Torgersen           39.1          18.7               181        3750
#>  2 Adelie  Torgersen           39.5          17.4               186        3800
#>  3 Adelie  Torgersen           40.3          18                 195        3250
#>  4 Adelie  Torgersen           NA            NA                  NA          NA
#>  5 Adelie  Torgersen           36.7          19.3               193        3450
#>  6 Adelie  Torgersen           39.3          20.6               190        3650
#>  7 Adelie  Torgersen           38.9          17.8               181        3625
#>  8 Adelie  Torgersen           39.2          19.6               195        4675
#>  9 Adelie  Torgersen           34.1          18.1               193        3475
#> 10 Adelie  Torgersen           42            20.2               190        4250
#> # ℹ 334 more rows
#> # ℹ 2 more variables: sex <fct>, year <int>
…
Solution 3: dplyr

Use mutate() to create a new column from the old column.

penguins %>% 
  select(bill_length_mm) %>% 
  mutate(scaled_bill_length = scale(bill_length_mm)[, 1])

#> # A tibble: 344 × 2
#>    bill_length_mm scaled_bill_length
#>             <dbl>              <dbl>
#>  1           39.1             -0.883
#>  2           39.5             -0.810
#>  3           40.3             -0.663
#>  4           NA               NA    
#>  5           36.7             -1.32 
#>  6           39.3             -0.847
#>  7           38.9             -0.920
#>  8           39.2             -0.865
#>  9           34.1             -1.80 
#> 10           42               -0.352
#> # ℹ 334 more rows
…
